{
  "Classic beef burger":{
    "recipe_id": 1,
    "recipe": "Classic beef burger",
    "recipe_image": "https://i.ibb.co/0mLCxxx/classic-burger.jpg",
    "serves": 1,
    "star_rating": 5,
    "belongs_to_chef": "Mike Thompson",
    "description": "A delicious and simple homemade beef burger, with all the classic toppings that make an excellent burger.",
    "instructions": [
      "Tip the mince into a large bowl and break up with a fork. Add the salt and massage with your hands until the mixture is soft and the salt is well incorporated. Cover and leave to stand at room temperature for 25 minutes.",
      "For the sauce, mix the tomato ketchup and mayonnaise together. Set aside.",
      "Pat the mince mixture into a burger approximately 12cm/4½in diameter. Use a small bowl or saucer as a guide if you want it to be really neat.",
      "Heat a non-stick frying pan over a high heat. Add the burger and cook for a minute on each side or until browned and cooked through.",
      "Serve the burger and sauce in the toasted bun with the toppings of your choice."
    ],
    "prep_time": "Less than 40 minutes",
    "cook_time": "10 to 40 minutes",
    "dietary": null,
    "date_created": "9/04/20",
    "food_nutrients": "Per Serving: 288 calories; 17.8 g fat; 9.1 g carbohydrates; 21.5 g protein; 96 mg cholesterol; 196 mg sodium.",
    "ingredients": [
      {
        "ingredient": "Beef mince, 15% fat",
        "measurement": "150g"
      },
      {
        "ingredient": "Salt",
        "measurement": "1 tsp"
      },
      {
        "ingredient": "Ground black pepper",
        "measurement": "1 tsp"
      },
      {
        "ingredient": "Brioche bun",
        "measurement": "1"
      },
      {
        "ingredient": "Tomato",
        "measurement": "1 slice"
      },
      {
        "ingredient": "Gouda cheese",
        "measurement": "1 slice"
      },
      {
        "ingredient": "Red onion, finely chopped",
        "measurement": "1/2"
      },
      {
        "ingredient": "Gem lettuce",
        "measurement": "2 leaves"
      },
      {
        "ingredient": "Back bacon",
        "measurement": "2 slices"
      },
      {
        "ingredient": "Tomato ketchup",
        "measurement": "1 tbsp"
      },
      {
        "ingredient": "Mayonnaise",
        "measurement": "2 tbsp"
      }
    ]
  },
  "Pasta carbonara":{
    "recipe_id": 2,
    "recipe": "Pasta carbonara",
    "recipe_image": "https://i.ibb.co/L1VRfwg/pasta-carbonara.jpg",
    "serves": 1,
    "star_rating": 4,
    "belongs_to_chef": "Julia Roberts",
    "description": "The perfect carbonara on a budget, with heaps of bacon and parmesan to create a light and flavourful dish.",
    "instructions": [
      "Cook the bacon either in a frying pan or in the oven until crisp, dry on paper towels to remove excess oil",
      "beat the eggs together in a bowl, add the cream until fully incorportated. Then add the cheese, stir and set aside",
      "Heat a pan of boiling water with salt added, then add pasta and cook till preference.",
      "Once cooked, drain the water, add pasta back to pan with butter and stir until melted.",
      "Finally, add bacon and cheese mixture and toss gently until mixed."
    ],
    "prep_time": "15 minutes",
    "cook_time": "15 minutes",
    "dietary": null,
    "date_created": "10/04/20",
    "food_nutrients": "Per Serving: 495 calories; 17.7 g fat; 41.7 g carbohydrates; 18.1 g protein; 142 mg cholesterol; 450 mg sodium.",
    "ingredients": [
      {
        "ingredient": "Smoked bacon, cut into small pieces",
        "measurement": "226g"
      },
      {
        "ingredient": "Eggs",
        "measurement": "2"
      },
      {
        "ingredient": "Heavy cream",
        "measurement": "120ml"
      },
      {
        "ingredient": "Parmesan cheese",
        "measurement": "128g"
      },
      {
        "ingredient": "Fettuccine pasta",
        "measurement": "454g"
      },
      {
        "ingredient": "Soft butter",
        "measurement": "44g"
      },
      {
        "ingredient": "Parsley, chopped",
        "measurement": "44g"
      },
      {
        "ingredient": "Ground black pepper",
        "measurement": "1 tbsp"
      }
    ]
  },
  "Chicken, sweet potato & coconut curry":{
    "recipe_id": 4,
    "recipe": "Chicken, sweet potato & coconut curry",
    "recipe_image": "https://i.ibb.co/tcYvD5n/chicken-curry.jpg",
    "serves": 1,
    "star_rating": 5,
    "belongs_to_chef": "Steven Smith",
    "description": "A hearty but light chicken and sweet potato curry.",
    "instructions": [
      "Heat the oil in a deep frying pan",
      "Add chicken, sweet potatos and lentils and stir to coat in sauce",
      "Pour stock and coconut milk",
      "Bring to the boil, then simmer for 15 minutes",
      "Add the frozen peas and simmer for 5 minutes",
      "Season to taste then serve"
    ],
    "prep_time": "5 to 10 minutes",
    "cook_time": "20 to 25 minutes",
    "dietary": null,
    "date_created": "10/04/20",
    "food_nutrients": "Per Serving: 495 calories; 17.7 g fat; 41.7 g carbohydrates; 18.1 g protein; 142 mg cholesterol; 450 mg sodium.",
    "ingredients": [
      {
        "ingredient": "Sunflower oil",
        "measurement": "1 tbsp"
      },
      {
        "ingredient": "Mild curry sauce",
        "measurement": "1 jar"
      },
      {
        "ingredient": "Boneless chicken breasts, cut into small pieces",
        "measurement": "2"
      },
      {
        "ingredient": "Medium-sized sweet potato, peeled and cut into small pieces",
        "measurement": "1"
      },
      {
        "ingredient": "Red split lentils",
        "measurement": "2 tbsp"
      },
      {
        "ingredient": "Chicken stock",
        "measurement": "150ml"
      },
      {
        "ingredient": "Coconut milk",
        "measurement": "200ml"
      },
      {
        "ingredient": "Frozen peas",
        "measurement": "80g"
      }
    ]
  },
  "Chicken and broccoli stir fry":{
    "recipe_id": 4,
    "recipe": "Chicken and broccoli stir fry",
    "recipe_image": "https://i.ibb.co/hXvssT4/stir-fry.jpg",
    "serves": 1,
    "star_rating": 4,
    "belongs_to_chef": "Bill Carter",
    "description": "Asian inspired chicken and broccoli stir fry.",
    "instructions": [
      "Mix chicken, 1 1/2 tablespoons of vegetable oil, cornstarch, 2 teaspoons of soy sauce, ginger, garlic and 2 teaspoons of sherry in to a bowl",
      "Whisk 2 tablespoons of soy sauce, sherry and oyster sauce in another bowl.",
      "Add rice bag to a pan of boiling water and check every minute",
      "Heat 1 tablespoon of vegetable oil in a wok or frying pan over medium-high heat, cook chicken until golden.",
      "Take cooked chicken out of pan and dry with a paper towel.",
      "Then heat remaining oil in the same wok, cook and stir broccoli until semi cooked, stir in oyster sauce mixture and continue cooking until broccoli is fully cooked.",
      "Add cooked chicken back to wok adn add green onions, then toss until heated through and coat with sauce.",
      "Take rice out and plate and serve with stir fry mixture",
      "Season to taste"
    ],
    "prep_time": "25 minutes",
    "cook_time": "20 minutes",
    "dietary": null,
    "date_created": "22/02/20",
    "food_nutrients": "260 calories; 16.1 g total fat; 46 mg cholesterol; 1067 mg sodium. 12.7 g carbohydrates; 16.4 g protein.",
    "ingredients": [
      {
        "ingredient": "Boil in the bag basmati rice",
        "measurement": "1"
      },
      {
        "ingredient": "Sunflower oil",
        "measurement": "1 tbsp"
      },
      {
        "ingredient": "Boneless chicken breast, sliced",
        "measurement": "1"
      },
      {
        "ingredient": "Cornstarch",
        "measurement": "4/4 tsp"
      },
      {
        "ingredient": "Soy sauce",
        "measurement": "4 tsp"
      },
      {
        "ingredient": "Dry sherry",
        "measurement": "4 tsp"
      },
      {
        "ingredient": "Fresh ginger, minced",
        "measurement": "1/4 tsp"
      },
      {
        "ingredient": "Oyster sauce",
        "measurement": "1 1/2 tsp"
      },
      {
        "ingredient": "Vegatable oil",
        "measurement": "1 1/2 tsp"
      },
      {
        "ingredient": "Broccoli florets",
        "measurement": "96g"
      },
      {
        "ingredient": "Sliced onion",
        "measurement": "1 tbsp"
      },
      {
        "ingredient": "Sliced onion",
        "measurement": "1 1/4 tsp"
      },
      {
        "ingredient": "White onion, sliced",
        "measurement": "1/2"
      },
      {
        "ingredient": "Salt and ground black pepper",
        "measurement": "added to taste"
      }
    ]
  },
  "Scrambled egg on toast":{ 
    "recipe_id": 5,
    "recipe": "Scrambled egg on toast",
    "recipe_image": "https://i.ibb.co/xJbvxqx/egg-on-toast.jpg",
    "serves": 1,
    "star_rating": 4,
    "belongs_to_chef": "Bill Carter",
    "description": "Light and fluffy scrambled egg served on toasted bread.",
    "instructions": [
      "Crack the eggs into a mixing bowl, add optional milk and whisk until fully incorporated",
      "Add a knob of butter to a frying pan and set on a medium heat until butter has melted. Then turn hob down to low heat",
      "Put two slices of toast in a toaster or under a grill oven to toast",
      "pour in egg mixture into the heated frying pan and stir to avoid overcooking",
      "Stir until eggs are fluffy and cooked until no longer runny",
      "Season eggs with salt and pepper and taste accordingly",
      "Serve eggs on top of toasted bread."
    ],
    "prep_time": "2 to 4 minutes",
    "cook_time": "5 minutes",
    "dietary": "V",
    "date_created": "14/02/20",
    "food_nutrients": "260 calories; 16.1 g total fat; 46 mg cholesterol; 1067 mg sodium. 12.7 g carbohydrates; 16.4 g protein.",
    "ingredients": [
      {
        "ingredient": "Eggs",
        "measurement": "2"
      },
      {
        "ingredient": "Milk",
        "measurement": "2 tbsp"
      },
      {
        "ingredient": "White bread",
        "measurement": "2 slices"
      },
      {
        "ingredient": "Salt and ground black pepper",
        "measurement": "added to taste"
      }
    ]
  },
  "Quinoa Black Bean Burger":{
    "recipe_id": 6,
    "recipe": "Quinoa Black Bean Burger",
    "recipe_image": "https://i.ibb.co/qW8Hx00/quinoa-burger.jpg",
    "serves": 1,
    "star_rating": 4,
    "belongs_to_chef": "Marie Henderson",
    "description": "Quinoa Black Bean Veggie Burgers piled high with all your favorite toppings and a garlic-lemon mayonnaise!",
    "instructions": [
      "Bring quinoa and water to the boil in a pan, reduce heat to medium-low, cover and simmer until the quinoa is tender and the water has been fully absorbed.",
      "Mash the black beans with a fork leaving some whole beans for added texture within the burger.",
      "Mix the crushed black beans with the quinoa, bell pepper, onion, garlic, salt, cumin, hot pepper sauce(optional) and the egg using your hands.",
      "Form the black bean mixture into a burger patty.",
      "Heat the olive oil in a frying pan.",
      "Cook the burger patty on each side until heated through and cripsy."
    ],
    "prep_time": "15 minutes",
    "cook_time": "15 to 20 minutes",
    "dietary": "V",
    "date_created": "2/10/19",
    "food_nutrients": "245 calories; 10.6 g fat; 28.9 g carbohydrates; 9.4 g protein; 47 mg cholesterol; 679 mg sodium.",
    "ingredients": [
      {
        "ingredient": "Can black beans, rinsed and drained",
        "measurement": "1"
      },
      {
        "ingredient": "Quinoa",
        "measurement": "16g"
      },
      {
        "ingredient": "Bread crumbs",
        "measurement": "42g"
      },
      {
        "ingredient": "Yellow bell pepper, minced",
        "measurement": "16g"
      },
      {
        "ingredient": "Minced onion",
        "measurement": "1 tbsp"
      },
      {
        "ingredient": "Large clove garlic, minced",
        "measurement": "1"
      },
      {
        "ingredient": "Ground cumin",
        "measurement": "1/2 tsp"
      },
      {
        "ingredient": "Salt",
        "measurement": "1/4 tsp"
      },
      {
        "ingredient": "Hot pepper sauce(optional)",
        "measurement": "1/2 tsp"
      },
      {
        "ingredient": "Egg",
        "measurement": "1"
      },
      {
        "ingredient": "Olive oil",
        "measurement": "2 tsp"
      }
    ]
  },
  "Sausage pasta":{
    "recipe_id": 7,
    "recipe": "Sausage pasta",
    "recipe_image": "https://i.ibb.co/VDxrrcr/sausage-pasta.jpg",
    "serves": 1,
    "star_rating": 4,
    "belongs_to_chef": "Marie Henderson",
    "description": "A simple yet elegant variation of sausage pasta that allows for numerous different additions to create unique recipes.",
    "instructions": [
      "Bring a pot of salted water to the boil. Add pasta and cook to preference, drain and keep aside",
      "Heat oil in a frying pan, add sausage and cook through until no longer pink. During the final stage of the cooking process, add onion and garlic to the pan.",
      "Add tomatoes, basil and stock cubes to pan.",
      "Cook over a medium heat for 5 minutes to slighty reduce sauce. Add chopped spinach, cover pan and simmer until spinach is tender.",
      "Add pasta to pan and mix together, serve with grated cheese spinkled over and serve."
    ],
    "prep_time": "15 minutes",
    "cook_time": "40 minutes",
    "dietary": null,
    "date_created": "5/04/19",
    "food_nutrients": "424 calories; 19.4 g total fat; 89 mg cholesterol; 1077 mg sodium. 49 g carbohydrates; 22.4 g protein.",
    "ingredients": [
      {
        "ingredient": "Pasta",
        "measurement": "28g"
      },
      {
        "ingredient": "Olive oil",
        "measurement": "1/2 tsp"
      },
      {
        "ingredient": "Spicy italian sausage",
        "measurement": "70g"
      },
      {
        "ingredient": "Onion, chopped",
        "measurement": "Half"
      },
      {
        "ingredient": "Clove garlic, minced",
        "measurement": "1"
      },
      {
        "ingredient": "Chicken stock cube",
        "measurement": "2"
      },
      {
        "ingredient": "Dried basic",
        "measurement": "1/8 tsp"
      },
      {
        "ingredient": "Can diced tomatoes",
        "measurement": "1"
      },
      {
        "ingredient": "Chopped spinach",
        "measurement": "1 handful"
      },
      {
        "ingredient": "Grated parmesan cheese",
        "measurement": "1 tbsp"
      },
      {
        "ingredient": "Grated parmesan cheese",
        "measurement": "1/4 tsp"
      }
    ]
  },
  "Mushroom And Bacon Risotto":{
    "recipe_id": 8,
    "recipe": "Mushroom And Bacon Risotto",
    "recipe_image": "https://i.ibb.co/Lz7pNkW/mushroom-risotto.jpg",
    "serves": 1,
    "star_rating": 5,
    "belongs_to_chef": "Mike Thompson",
    "description": "Chicken and bacon risotto is a quick and easy meal with heaps of flavour for when you're in rush",
    "instructions": [
      "Cut the bacon into small pieces.",
      "Fry the bacon gently in a frying pan then remove bacon onto plate and pat dry with paper towel.",
      "Peel and chop the onion and fry in the remaining bacon fat.",
      "Add the dry rice and stir over gentle heat for about 5 minutes.",
      "And the washed and chopped mushrooms, peeled and chopped tomatoes and fried bacon, season well.",
      "Pour boiling water over stock cube and stir until dissolved then add to the rice mixture.",
      "Stir well then cover with lid and cook over gentle heat about 40 minutes until the liquid is absorbed and the rice is fully cooked."
    ],
    "prep_time": "10 minutes",
    "cook_time": "40 minutes",
    "dietary": null,
    "date_created": "20/04/20",
    "food_nutrients": "575 calories, 24g fat.",
    "ingredients": [
      {
        "ingredient": "Smoked back bacon, chopped into fine pieces",
        "measurement": "2"
      },
      {
        "ingredient": "Medium white onion",
        "measurement": "1/2"
      },
      {
        "ingredient": "Risotto rice",
        "measurement": "120g"
      },
      {
        "ingredient": "Small mushrooms",
        "measurement": "40g"
      },
      {
        "ingredient": "Tomato",
        "measurement": "half"
      },
      {
        "ingredient": "Boiling water",
        "measurement": "1/2 pint"
      },
      {
        "ingredient": "Chicken stock cube",
        "measurement": "1"
      },
      {
        "ingredient": "Salt and ground black pepper",
        "measurement": "Season accordingly"
      }
    ]
  },
  "Pork and Apple in an Apple Cider Sauce":{
    "recipe_id": 9,
    "recipe": "Pork and Apple in an Apple Cider Sauce",
    "recipe_image": "https://i.ibb.co/G9H44mR/pork-apple.jpg",
    "serves": 1,
    "star_rating": 5,
    "belongs_to_chef": "Julia Robberts",
    "description": "Easy sweet and savoury dish in under an hour",
    "instructions": [
      "Pre-heat pan to a high heat with a tablespoon of olive oil and a knob of butter", "Pre-heat oven to 180 degrees Celsius and let an ovenproof pan rest to heat up", 
      "Once hot, add Pork steaks to the pan and let them cook each side for 4 minutes each", 
      "Add Pork Chops to ovenproof pan and allow to cook until cooked through (Approx. 10 Minutes)", 
      "Once cooked, cover with tin foil on a plate to preserve heat", 
      "Turn down the hob heat to medium (Add oil if needed)", 
      "Add sliced apple to the pan and cover with a lid.",
      "Allow to cook for 20 minutes (Stir during to reduce sticking) until caramelised and soft", 
      "Remove Apple from the pan and add chopped onion, cover and cook on medium heat until soft", 
      "Re-add apple and pour in cider, cook uncovered until the alcohol has mostly cooked away", 
      "Re-add pork and cook until the cider has turned into a semi-think glaze", "Serve with Roast Potatoes and Green Veg"],
    "prep_time": "20 Minutes",
    "cook_time": "50 Minutes",
    "dietary": null,
    "date_created": "8th March 2020",
    "food_nutrients": null,
    "ingredients": [
      {
        "ingredient": "Pork Steaks, seasoned",
        "measurement": "2"
      },
      {
        "ingredient": "Apple, sliced",
        "measurement": "1"
      },
      {
        "ingredient": "Onion, diced",
        "measurement": "1/2"
      },
      {
        "ingredient": "Apple Cider",
        "measurement": "200ml"
      }
    ]
  },
  "Chickpea, spinach and egg curry":{
    "recipe_id": 10,
    "recipe": "Chickpea, spinach and egg curry",
    "recipe_image": "https://i.ibb.co/0Mjrf5v/chickpea-curry.jpg",
    "serves": 2,
    "star_rating": 4,
    "belongs_to_chef": "Steven Smith",
    "description": "This delicious one pot 10 Minute Chickpea and Spinach Curry is an easy vegan curry that you need in after a long day in uni.",
    "instructions": [
      "Bring a small pan of water to the boil and cook the eggs for 6-8 minutes, or cooked to preference. When the eggs are cool enough to handle, shell, halve and set aside.",
      "Heat the oil in a frying pan over a low heat. Add the cumin, black mustard seeds, curry powder, garlic granules adn ground ginger and stir-fry for 1 minute.",
      "Add the tomatoes, chickpeas, lemon juice and boiling water and season with salt and pepper to your liking. Cook over a high heat for 6-8 minutes, or until reduced and thickened, stirring often. Add the spinach and cook until tender.",
      "Serve the curry in two bowls, top with two egg halves and sprinkle with some curry powder. Top with corriander(optional), and serve."
    ],
    "prep_time": "Less than 40 minutes",
    "cook_time": "10 to 40 minutes",
    "dietary": "V",
    "date_created": "10/04/20",
    "food_nutrients": null,
    "ingredients": [
      {
        "ingredient": "Large eggs",
        "measurement": "2"
      },
      {
        "ingredient": "Light olive oil",
        "measurement": "2 tbsp"
      },
      {
        "ingredient": "Cumin seeds",
        "measurement": "2 tsp"
      },
      {
        "ingredient": "Black mustard seeds",
        "measurement": "1 tsp"
      },
      {
        "ingredient": "Medium curry powder",
        "measurement": "2 tbsp"
      },
      {
        "ingredient": "Garlic granules",
        "measurement": "1 tsp"
      },
      {
        "ingredient": "Ground ginger",
        "measurement": "1 tsp"
      },
      {
        "ingredient": "Tin chopped tomatoes",
        "measurement": "400g"
      },
      {
        "ingredient": "Tin chickpeas, drained and rinsed",
        "measurement": "400g"
      },
      {
        "ingredient": "Lemon juice",
        "measurement": "1 tbsp"
      },
      {
        "ingredient": "Boiling water",
        "measurement": "100ml"
      },
      {
        "ingredient": "Baby leaf spinach",
        "measurement": "180g"
      },
      {
        "ingredient": "Salt and freshly ground black pepper",
        "measurement": "season to taste"
      },
      {
        "ingredient": "Chopped fresh coriander, to garnish(optional)",
        "measurement": "2 tbsp"
      }
    ]
  },
  "Ham and cheese omelette":{
    "recipe_id": 11,
    "recipe": "Ham and cheese omelette",
    "recipe_image": "https://i.ibb.co/F4tM9KP/omelette.jpg",
    "serves": 1,
    "star_rating": 4,
    "belongs_to_chef": "Bill Carter",
    "description": "A classic favourite, quick and easy to create, makes a perfect lunch.",
    "instructions": [
      "Gently beat the eggs together in a mixing bowl and season to taste with salt and pepper.",
      "Heat the butter in a fryin gpan until melted. Pour in the eggs and cook for a seconds, until the bottom of the omelette is lightly set. Push the set parts of the omelette into the uncooked centre of the omelette. Cook again, until the omelette has set further, then push those set parts into the center of the omelette again. Repeat the process until the eggs have just set but the omelette is still soft in the centre.",
      "Add the cheese and 4/4 of the ham in the centre of the omelette and cook until the cheese has melted.",
      "Increase the heat to high and cook the omelette for a further 40 seconds, or until it browns on the bottom.",
      "Fold the omelette in half, then remove the pan from the heat and tilt it slightly to move the omelette to the edge of the pan. Then slide the omelette onto a serving plate. Sprinkle the rest of the ham on top."
    ],
    "prep_time": "Less than 40 minutes",
    "cook_time": "Less than 10 minutes",
    "dietary": null,
    "date_created": "10/04/20",
    "food_nutrients": "492 kcal, 49g protein, 0g carbohydrates (of which 0g sugars), 47g fat (of which 17g saturates), 0g fibre and 4.4g salt.",
    "ingredients": [
      {
        "ingredient": "Eggs",
        "measurement": "4"
      },
      {
        "ingredient": "Umsalted Butter",
        "measurement": "10g"
      },
      {
        "ingredient": "Cheddar cheese",
        "measurement": "40g"
      },
      {
        "ingredient": "Thick slice ham, finely chopped",
        "measurement": "1"
      },
      {
        "ingredient": "Salt and ground black pepper",
        "measurement": "Season to taste"
      }
    ]
  },
  "Pasta with chilli, bacon and tomato sauce":{
    "recipe_id": 12,
    "recipe": "Pasta with chilli, bacon and tomato sauce",
    "recipe_image": "https://i.ibb.co/VDxrrcr/sausage-pasta.jpg",
    "serves": 4,
    "star_rating": 5,
    "belongs_to_chef": "Olivia Scott",
    "description": "A spicy and richly flavoured pasta thats easy and simple to make.",
    "instructions": [
      "For the sauce, add the bacon and onion in a pan with the oil and chilli, and fry gently for about 4-5 minutes. Add the white wine and tomatoes and cook for another 15-20 minutes and stiring occasionally.",
      "Meanwhile, bring a large pan of lightly salted water to the boil, and cook the pasta to preference. Strain the spagetti and mix with the sauce. Then sprinkle the parseman over and serve."
    ],
    "prep_time": "Less than 40 minutes",
    "cook_time": "10 to 40 minutes",
    "dietary": null,
    "date_created": "10/04/20",
    "food_nutrients": null,
    "ingredients": [
      {
        "ingredient": "Smoked back bacon, cut inot small cubes",
        "measurement": "140g"
      },
      {
        "ingredient": "Small onion, finely chopped",
        "measurement": "1"
      },
      {
        "ingredient": "Extra virgin olive oil",
        "measurement": "4 tbsp"
      },
      {
        "ingredient": "Hot dried red chilli, finely chopped",
        "measurement": "1"
      },
      {
        "ingredient": "Dry white wine",
        "measurement": "2 tbsp"
      },
      {
        "ingredient": "Tomatoes, cut into quarters",
        "measurement": "500g"
      },
      {
        "ingredient": "Spagetti",
        "measurement": "400g"
      },
      {
        "ingredient": "Parmesan cheese",
        "measurement": "80g"
      }
    ]
  },
  "Pizza on toast":{
    "recipe_id": 14,
    "recipe": "Pizza on toast",
    "recipe_image": "https://i.ibb.co/4mLms8n/pizza-toast.jpg",
    "serves": 1,
    "star_rating": 4,
    "belongs_to_chef": "Olivia Scott",
    "description": "In a rush but still fancy pizza? This easy cheese on toast meets pizza that anyone can make. Add your favourite toppings to customise.",
    "instructions": [
      "Preheat the grill to a medium-high heat, place bread on baking tray and grill until one side is lightly toasted.",
      "Turn the bread over and spread with the tomato sauce and top with any choice of toppings. Then sprinkle with cheese.",
      "Return to the grill until golden brown or until the cheese has melted and the toppings are hot."
    ],
    "prep_time": "Less than 40 minutes",
    "cook_time": "Less than 10 minutes",
    "dietary": null,
    "date_created": "9/04/20",
    "food_nutrients": null,
    "ingredients": [
      {
        "ingredient": "Thick slice white or brown bread",
        "measurement": "1"
      }, 
      {
        "ingredient": "Pasta sauce, pizza topping, tomato salsa or passata",
        "measurement": "2 tbsp"
      },
      {
        "ingredient": "Thinly sliced chorizo, salami, ham, mushrooms, onions, sun-dried tomatoes(or any other toppings you fancy)",
        "measurement": "Add to preference"
      },
      {
        "ingredient": "Cheddar or mozzarella cheese",
        "measurement": "40g"
      }
    ]
  },
  "Chinese inpired steak":{
    "recipe_id": 14,
    "recipe": "Chinese inpired steak",
    "recipe_image": "https://i.ibb.co/x4N6j6y/chinese-steak.jpg",
    "serves": 1,
    "star_rating": 5,
    "belongs_to_chef": "Julia Roberts",
    "description": "The perfect steak with some chinese inspiration.",
    "instructions": [
      "Take steak out of the fridge at least 40 minutes before cooking to allow for the steak to get to room tempreture.",
      "After 15 minutes from taking the steak out of the oven, sprinkle one side of steak with half of the salt, pepper, garlic, chinese seasoning powder, soy and oyster sauce. Rub in to the steak with your hands. Turn the steak over and repeat on the other side and rub the edges of the steak with the mixture left over. Leave for a further 15 minutes",
      "Add olive oil to a frying pan and heat up to a high heat. Once heated, add the steak away from you to avoid oil splash, and leave alone for 1 minute.",
      "After the first minute, turn the steak over and leave alone for another 1 minute. Repeat this process for a total of 4 - 4 minutes.",
      "Once the steak has cooked, remove steak from pan and leave to rest for the same length of time as cooking to avoid any juices escaping.",
      "Plate and serve."
    ],
    "prep_time": "Less than 40 minutes",
    "cook_time": "6 to 8 minutes",
    "dietary": null,
    "date_created": "10/04/20",
    "food_nutrients": null,
    "ingredients": [
      {
        "ingredient": "Rump steak",
        "measurement": "1"
      },
      {
        "ingredient": "Olive oil",
        "measurement": "1 tbsp"
      },
      {
        "ingredient": "Salt",
        "measurement": "1 tsp"
      },
      {
        "ingredient": "Ground black pepper",
        "measurement": "1 tsp"
      },
      {
        "ingredient": "Garlic granules",
        "measurement": "1 tsp"
      },
      {
        "ingredient": "Soy sauce",
        "measurement": "2 tbsp"
      },
      {
        "ingredient": "Chinese all spice seasoning",
        "measurement": "1 tbsp"
      },
      {
        "ingredient": "Oyster sauce",
        "measurement": "1 tbsp"
      }
    ]
  },
  "Smashed avocado on toast":{
    "recipe_id": 15,
    "recipe": "Smashed avocado on toast",
    "recipe_image": "https://i.ibb.co/WKYqQ6b/avocado-toast.jpg",
    "serves": 1,
    "star_rating": 4,
    "belongs_to_chef": "Olivia Scott",
    "description": "An extremely simple and quick recipe to make when you need to hush out of the house but want something to last.",
    "instructions": [
      "Place the avocado in a bowl and add the chilli, garlic, lime juice, salt and a drizzle of extra virgin olive oil. Mash with a fork to consistency preference.",
      "Spread on toast and garnish with coriander leaves."
    ],
    "prep_time": "Less than 40 minutes",
    "cook_time": "No cooking required",
    "dietary": null,
    "date_created": "20/04/20",
    "food_nutrients": null,
    "ingredients": [
      {
        "ingredient": "Avocado, peeled and de-stoned",
        "measurement": "1"
      },
      {
        "ingredient": "Dried chilli flakes",
        "measurement": "1 pinch"
      },
      {
        "ingredient": "Juice from line",
        "measurement": "1"
      },
      {
        "ingredient": "Salt",
        "measurement": "seasoned to taste"
      },
      {
        "ingredient": "Extra virgin olive oil",
        "measurement": "added to preference"
      },
      {
        "ingredient": "Sourdough, toasted",
        "measurement": "1 slice"
      },
      {
        "ingredient": "Fresh coriander, chopped",
        "measurement": "handful"
      }
    ]
  },
  "The perfect baked spud":{
    "recipe_id": 16,
    "recipe": "The perfect baked spud",
    "recipe_image": "https://i.ibb.co/WKJtR0N/baked-spud.jpg",
    "serves": 2,
    "star_rating": 5,
    "belongs_to_chef": "Steven smith",
    "description": "If you have some extra time for dinner, why not make the perfect baked potato with cheese and bacon.",
    "instructions": [
      "Preheat oven to 200C.",
      "Wash potatoes well, dry them and prick with a fork several times. Pour olive oil into your hands and rub over the potatoes, then scatter with salt which should stick to the potatoes. Place directly on the shelf in the oven for between 1 hour and 15 minutes and 1 hour and 40 minutes (depending on the size of the potato). When cooked, the potato should be golden brown and crisp on the outside. They should also give a little when squeezed. Serve split open with lots of butter.",
      "Put slices of bacon on a baking tray and add to oven to cook.",
      "Preheat grill to a medium-high heat.",
      "Cut the potatoes in half and scoop out most of the inner potato with a fork into a bowl. For the filling, cut up the cooked bacon and add to the potato mixture, as well as three quarters of the cheese and butter. Stir until fully combined. Season to taste with salt and pepper.",
      "Spoon the mixture back into the potato skins, then place on a baking tray and scatter over the remaining cheese. Grill until the cheese is bubbly and golden-brown."
    ],
    "prep_time": "Less than 40 minutes",
    "cook_time": "1 to 2 hours",
    "dietary": null,
    "date_created": "10/04/20",
    "food_nutrients": null,
    "ingredients": [
      {
        "ingredient": "Jacket potatoes",
        "measurement": "2"
      },
      {
        "ingredient": "Olive oil",
        "measurement": "Add to preference"
      },
      {
        "ingredient": "Salt and ground black pepper",
        "measurement": "Season to taste"
      },
      {
        "ingredient": "Grated mature cheddar",
        "measurement": "2 handfuls"
      },
      {
        "ingredient": "Large knobs of butter",
        "measurement": "2"
      },
      {
        "ingredient": "Smoked back bacon, cut into bite-sized pieces",
        "measurement": "2"
      }
    ]
  },
  "Chicken chow mein":{
    "recipe_id": 17,
    "recipe": "Chicken chow mein",
    "recipe_image": "https://i.ibb.co/mh67wSq/chow-mein.jpg",
    "serves": 2,
    "star_rating": 4,
    "belongs_to_chef": "Mike Thompson",
    "description": "An authentic chinese stir fry that can be cooked in less than 10 minutes for when you're in a rush or had a long.",
    "instructions": [
      "Cook the noodles in a pan of boiling water for 2 to 4 minutes, or according to packet instructions. Drain, then rinse under cold water and drain again. Drizzle with a dash of sesame oil and toss through to prevent noodles sticking together.",
      "Add the chicken strips in a bowl and season with a dash of light soy sauce, five-spice powder and chilli sauce(optional). Mix well, then lightly dust the chicken strips with the cornflour.",
      "Heat the wok or frying pan until smoking and add the groundnut oil, then add the chicken and stir fry for 4 to 4 minutes or until the chicken is golden brown and fully cooked.",
      "Add the red pepper and stir fry for 1 minute, then add the bean sprouts and spring onion and fry for 40 seconds. Stir in the cooked noodles adn season with soy sauce, a dash of sesame oil and ground black pepper. Serve on a plate."
    ],
    "prep_time": "Less than 40 minutes",
    "cook_time": "Less than 10 minutes",
    "dietary": null,
    "date_created": "10/04/20",
    "food_nutrients": "580 kcal, 49g protein, 67g carbohydrates (of which 8.5g sugars), 11g fat (of which 2g saturates), 7g fibre and 4.4g salt.",
    "ingredients": [
      {
        "ingredient": "Medium egg noodles",
        "measurement": "150g"
      },
      {
        "ingredient": "Sesame oil",
        "measurement": "1 dash"
      },
      {
        "ingredient": "Chicken breast fillets, sliced into strips",
        "measurement": "400g"
      },
      {
        "ingredient": "Light soy sauce",
        "measurement": "2 tbsp"
      },
      {
        "ingredient": "Five-spice powder",
        "measurement": "1 tsp"
      },
      {
        "ingredient": "Chilli sauce(optional)",
        "measurement": "1 tsp"
      },
      {
        "ingredient": "Cornflour",
        "measurement": "1 tbsp"
      },
      {
        "ingredient": "Groundnut oil",
        "measurement": "1 tbsp"
      },
      {
        "ingredient": "Red pepper, seeds removed and thinly sliced",
        "measurement": "1"
      },
      {
        "ingredient": "Bean sprouts",
        "measurement": "150g"
      },
      {
        "ingredient": "Spring onion, sliced lengthways",
        "measurement": "1"
      },
      {
        "ingredient": "Ground black pepper",
        "measurement": "seasoned to taste"
      }
    ]
  },
  "Pepperoni pizza":{
    "recipe_id": 18,
    "recipe": "Pepperoni pizza",
    "recipe_image": "https://i.ibb.co/gFcSJCC/pepperoni-pizza.jpg",
    "serves": 1,
    "star_rating": 5,
    "belongs_to_chef": "Julia Roberts",
    "description": "A classic staple in any uni house, show off with this homemade pepperoni pizza",
    "instructions": [
      "Preheat oven to 240C",
      "For the pizza dough, place the flour, yeast and salt into a large mixing bowl and stir to combine.",
      "Make a well in the centre of the dry ingredients and pour in the warm water and oil. Mix the wet ingredients into the dry ingredients using a wooden spoon first, then your hands until the mixture comes together as a soft ball of dough.",
      "Turn out the dough onto a lightly floured work surface and knead it throroughly for 8-10 minutes, or until the dough has become smooth and is no longer sticky.",
      "Dust out the work surface again with flour, then roll out the pizza dough, moving it around on the work surface as you roll to keep the shape circular and prevent the dough from sticking until you have a large thin pizza base. Press your fingertips down into the dough all over the pizza base to prevent the dough from rising while cooking.",
      "For the topping, spread the passata over the pizza base, leaving a gap around the edge for the crust to form. Season to taste with salt and black pepper. Scatter over the roasted pepper slices, pepperoni slices and pieces of mozzerella.",
      "Bake in the oven for 10 to 15 minutes, or until the base is crisp and starting to char around the edges. Before serving, drizzle some olive oil, garish with basic sprigs and season again."
    ],
    "prep_time": "Less than 40 minutes",
    "cook_time": "10 to 40 minutes",
    "dietary": null,
    "date_created": "10/04/20",
    "food_nutrients": null,
    "ingredients": [
      {
        "ingredient": "Strong white flour, plus extra for dusting",
        "measurement": "400g"
      },
      {
        "ingredient": "Sachet fast-action yeast",
        "measurement": "1"
      },
      {
        "ingredient": "Salt",
        "measurement": "1 1/2 tsp"
      },
      {
        "ingredient": "Warm water",
        "measurement": "175ml"
      },
      {
        "ingredient": "Extra virgin olive oil, plus extra for greasing",
        "measurement": "4 tbsp"
      },
      {
        "ingredient": "Passata",
        "measurement": "100ml"
      },
      {
        "ingredient": "roasted red pepper, skin removed and sliced",
        "measurement": "1"
      },
      {
        "ingredient": "Pepperoni, sliced into rounds",
        "measurement": "200g"
      },
      {
        "ingredient": "Mozzerella, broken into small pieces or sliced",
        "measurement": "200g"
      },
      {
        "ingredient": "Extra virgin olive oil",
        "measurement": "Drizzle"
      },
      {
        "ingredient": "Fresh basil leaves",
        "measurement": "Few sprigs"
      },
      {
        "ingredient": "Salt and ground black pepper",
        "measurement": "seasoned to taste"
      }
    ]
  },
  "Pork Chops with Sweet and Sour Peppers":{
    "recipe_id": 19,
    "recipe": "Pork Chops with Sweet and Sour Peppers",
    "recipe_image": "https://i.ibb.co/rtFsKCj/pork-pepper.jpg",
    "serves": 1,
    "star_rating": 5,
    "belongs_to_chef": "Marie henderson",
    "description": "A nice hearty meal of pork chops over a sweet and sour mixture of onions, red peppers and basil. Delicious.",
    "instructions": [
      "Preheat frying pan to a high heat. Meanwhile, slice red peppers into thin slices. Then slice the red onion into thin slices.",
      "Add 2 tablespoons of olive oil to the frying pan, then add the onions and peppers. Add salt, pepper, and a tablespoon of sugar. Then add the red wine vinegar and olive oil and cook for 2 to 4 minutes.",
      "Cut the fresh basil into thin slices, add the basil to the frying pan and cook for a futher 40 seconds.",
      "Once cooked, remove from frying pan and set aside.",
      "Slice pork fat to ensure the pork chops stay flat and cook evenly. Then season pork chops with salt and pepper.",
      "Add olive oil to frying pan and bring back to high heat. Add pork chops away from you, add garlic clove to pan and cook on one minute on each side. Then add thin slices of butter and baste the chops. Then turn the pork chops over and repeat for 4 to 4 minutes. Once cooked, remove chops from pan and set aside to rest for the same length of time as cooking.",
      "Plate and serve."
    ],
    "prep_time": "Less than 10 minutes",
    "cook_time": "10 to 15 minutes",
    "dietary": null,
    "date_created": "10/04/20",
    "food_nutrients": null,
    "ingredients": [
      {
        "ingredient": "Red bell peppers, cut into thin slices",
        "measurement": "2"
      },
      {
        "ingredient": "Red onion, sliced",
        "measurement": "1"
      },
      {
        "ingredient": "Olive oil",
        "measurement": "4 tbsp"
      },
      {
        "ingredient": "Salt and ground black pepper",
        "measurement": "seasoned to taste"
      },
      {
        "ingredient": "Castor sugar",
        "measurement": "1 tbsp"
      },
      {
        "ingredient": "Red wine vinegar",
        "measurement": "2 tbsp"
      },
      {
        "ingredient": "Fresh basil, sliced",
        "measurement": "Few sprigs"
      },
      {
        "ingredient": "Pork chops",
        "measurement": "2"
      },
      {
        "ingredient": "Garlic clove",
        "measurement": "2"
      },
      {
        "ingredient": "Knobs of butter",
        "measurement": "2"
      }
    ]
  },
  "Vegetable chilli":{
    "recipe_id": 20,
    "recipe": "Vegetable chilli",
    "recipe_image": "https://i.ibb.co/5Kz5pyQ/veggi-chilli.jpg",
    "serves": 4,
    "star_rating": 4,
    "belongs_to_chef": "Steven Smith",
    "description": "This vegetarian chilli packs a real flavour punch and is super easy to make.",
    "instructions": [
      "Heat oil in a frying pan over a medium heat. Add the onion and garlic and cook for 4 to 5 minutes or until soft.",
      "Add the red chilli, paprika and chilli powder and cook for 1 minute. Add the soya mince and cook for 2 to 4 minutes.",
      "Add the chopped tomatoes, tomato purée, vegetable stock, peppers and carrot and bring to the boil. Reduce the heat to medium-low and simmer for 10 minutes, stirring occasionally.",
      "Add the kidney beans and cook for 5 minutes. Mix the cornflour with 1 tablespoon of water, then add it to the pan and cook for a further 5 minutes. Stir in the coriander.",
      "Serve the chilli with the pitta halves, sour cream and grated cheese."
    ],
    "prep_time": "Less than 40 minutes",
    "cook_time": "10 to 40 minutes",
    "dietary": null,
    "date_created": "10 to 40 minutes",
    "food_nutrients": "509 kcal, 42g protein, 45g carbohydrates (of which 18g sugars), 15g fat (of which 6g saturates), 12g fibre and 1.5g salt.",
    "ingredients": [
      {
        "ingredient": "Rapeseed oil",
        "measurement": "1 tbsp"
      },
      {
        "ingredient": "Large onion, finely chopped",
        "measurement": "1"
      },
      {
        "ingredient": "Garlic cloves, finely chopped",
        "measurement": "2"
      },
      {
        "ingredient": "Red chilli, finely chopped",
        "measurement": "1"
      },
      {
        "ingredient": "Ground cumin",
        "measurement": "1/2 tsp"
      },
      {
        "ingredient": "Paprika",
        "measurement": "1 tbsp"
      },
      {
        "ingredient": "Chilli powder",
        "measurement": "1 tsp"
      },
      {
        "ingredient": "Soya mince",
        "measurement": "250g"
      },
      {
        "ingredient": "Tin chopped tomatoes",
        "measurement": "400g"
      },
      {
        "ingredient": "Tomato purée",
        "measurement": "2 tbsp"
      },
      {
        "ingredient": "Vegetable stock",
        "measurement": "400ml"
      },
      {
        "ingredient": "Green pepper, seeds removed and cubed",
        "measurement": "1"
      },
      {
        "ingredient": "Yellow pepper, seeds removed and cubed",
        "measurement": "1"
      },
      {
        "ingredient": "Carrot, grated",
        "measurement": "1"
      },
      {
        "ingredient": "Tin kidney beans in water, drained",
        "measurement": "400g"
      },
      {
        "ingredient": "Cornflour",
        "measurement": "1 tsp"
      },
      {
        "ingredient": "Fresh coriander, finely chopped",
        "measurement": "Handful"
      },
      {
        "ingredient": "Wholemeal pitta breads, halved",
        "measurement": "2"
      },
      {
        "ingredient": "Sour cream",
        "measurement": "4 tbsp"
      },
      {
        "ingredient": "Cheddar cheese, grated",
        "measurement": "50g"
      }
    ]
  }
}